[
  {
    "instruction": "(?) distribue autant de gorgée qu'il y a de personne présente dans le jeux",
    "disable": false,
    "propositionModifciation": []
  },
  {
    "instruction": " (?) Balance une punchline de ton choix si la majorité valide distribue 3 gorgées.",
    "disable": ""
  },
  {
    "instruction": "(?) donne l'heure qu'il est sans regarder, si tu es juste à 20 minutes près, distribue 6 gorgées.",
    "disable": false
  },
  {
    "instruction": "(?) donne le contenu des verres de chaque joueur, si tu y arrives, distribue 4 gorgées.",
    "disable": false
  },
  {
    "instruction": " (?) fais autant de pompes que tu peux, toutes les 5 tu peux distribuer 1 gorgée.",
    "disable": false
  },
  {
    "instruction": " Et ça fait Zumba Cafew, pour chaque pas de danse ou gestu exécuté, (?) distribue 2 gorgées. ",
    "disable": false
  },
  {
    "instruction": " (?),(?) et (?) distribuent respectivement 5,3 et 2 gorgées.",
    "disable": false
  },
  {
    "instruction": " Les joueurs portant actuellement un couvre-chef distribuent 2 gorgées.",
    "disable": false
  },
  {
    "instruction": " Fumer tue alors pour profiter du temps qu'il vous reste tous les joueurs avec une clope au bec distribuent puis boivent 3 gorgées.",
    "disable": false
  },
  {
    "instruction": " 91 c'est Méchant les boug ddu nueve uno distribue 9 gorgées.",
    "disable": false
  },
  {
    "instruction": " (?) Le Duc t’as validé, désigne quelqu'un qui pourra distribuer 5 gorgées pour créer des clash.",
    "disable": false
  },
  {
    "instruction": " (?) distribue autant de gorgées que tu pourras citer de Pokémons de type Psy.",
    "disable": false
  },
  {
    "instruction": " Nine for the sky, le dernier joueur à lever un bras en l'air ... bah bien vu tu distribues 3 gorgées.",
    "disable": false
  },
  {
    "instruction": " Les joueurs qui arrivent encore à tenir en équilibre sur un pied donnent 1 gorgée, c'est pas ouf non plus calmez vous.",
    "disable": false
  },
  {
    "instruction": " Les filles qui portent actuellement des talons, déjà respect mesdames, et distribuez 3 gorgées.",
    "disable": false
  },
  {
    "instruction": " (?) Balance une punchline de ton choix si la majorité valide distribue 3 gorgées.",
    "disable": false
  },
  {
    "instruction": " (?) Prends un cours accéléré de triche, tu gardes un joker sous la manche que tu utilises quand tu le souhaites pour esquiver une situation défavorable.",
    "disable": false
  },
  {
    "instruction": " (?), c'est ton jour de sortie, fête ça avec ta miff, distribue 4 gorgées à tes proches, annule la case prison si elle est active pour quelqu'un.",
    "disable": false
  },
  {
    "instruction": " (?), tu vois une étoile filante passer fais un vœu et invente une règle qui restera en vigueur jusqu'à la fin du jeu.",
    "disable": false
  },
  {
    "instruction": " (?), tu as parié sur Marseille et ils ont gagné pour une fois ! Double ton benef et les gorgées que tu auras à distribuer pendant 10 minutes.",
    "disable": false
  },
  {
    "instruction": " (?) doit balancer sa meilleure blague. Il pourra distribuer 1 gorgée par rire occasionné.",
    "disable": false
  },
  {
    "instruction": " (?), tu sens de la schneck, lave toi avec 2 shoot.",
    "disable": false
  },
  {
    "instruction": " (?) distribue autant de gorgées que tu as eu de relations différentes cette année.",
    "disable": false
  },
  {
    "instruction": " (?) Crayave tes moulènes mon copain si tu choppe pas l'niglo pour l'barbeuc sur le rond poind, tu fait cul-sec mon copain.",
    "disable": false
  }
]
